{
    "employees": [
        {
            "employee": {
                "id": 3,
                "name": "Тимур",
                "position": "позиция",
                "staff": "timursha",
                "photoUrl": "/timursha/avatar/100.jpg",
                "groupTitle": "Софьино (нераспределенные)",
                "groupId": 2,
                "fired": false,
                "newbie": false,
                "isOffice": false,
                "isOutstaff":false
            },
            "startWorkDate": "2021-01-01"
        }
    ],
    "pageInfo": {
        "page": 0,
        "totalPage": 3,
        "totalItems": 3
    }
}
