{
    "result": {
        "pager": {
            "page": 1,
            "pages": 5,
            "total": 9
        },
        "items": [
            {
                "id": 2,
                "name": "Wwwnnnzzz",
                "parentCategories": [
                    91491
                ],
                "siblingCategories": [
                    10498025
                ],
                "customCategories": [],
                "bid": 15,
                "models": [
                    1429703292,
                    1448810179
                ],
                "incutState": "ACTIVE",
                "targetPlace": "SEARCH",
                "transitions": []
            },
            {
                "id": 6,
                "name": "Cool",
                "parentCategories": [
                    91491
                ],
                "siblingCategories": [
                    10498025
                ],
                "customCategories": [],
                "bid": 5,
                "models": [
                    1429703292,
                    1448810179
                ],
                "incutState": "ACTIVE",
                "targetPlace": "SEARCH",
                "transitions": []
            }
        ]
    }
}
