{
    "entities": {
        "modelColors": {
            "101": {
                "id": 101,
                "categoryId": 91491,
                "baseColors": [13887686, 14896501, 13899071],
                "name": "цвет с super пикером"
            },
            "103": {
                "id": 103,
                "categoryId": 91491,
                "baseColors": [13887686, 14896501, 13899071],
                "name": "цвет с super пикером 2"
            },
            "104": {
                "id": 104,
                "categoryId": 91491,
                "baseColors": [13887686, 14896501, 13899071],
                "name": "цвет с super пикером 2"
            }
        }
    },
    "result": {
        "pager": {
            "total": 32,
            "pages": 2,
            "page": 1
        },
        "items": ["101", "103", "104"]
    }
}
