{
    "errors": [],
    "meta": {
        "host": "gravicapa01ht",
        "health": {
            "staff": "GREEN",
            "balance": "GREEN"
        },
        "mocks": [
            {
                "status": "ENABLED",
                "name": "AutoGenerationService"
            }
        ]
    },
    "result": {
        "item": {
            "pager": {
                "total": 32,
                "pages": 2,
                "page": 1
            },
            "items": [
                {
                    "id": 101,
                    "categoryId": 91491,
                    "baseColors": [13887686, 14896501, 13899071],
                    "name": "цвет с super пикером"
                },
                {
                    "id": 103,
                    "categoryId": 91491,
                    "baseColors": [13887686, 14896501, 13899071],
                    "name": "цвет с super пикером 2"
                },
                {
                    "id": 104,
                    "categoryId": 91491,
                    "baseColors": [13887686, 14896501, 13899071],
                    "name": "цвет с super пикером 2"
                }
            ]
        }
    }
}
