{
  "count": 36,
  "next": "http://testing.train-api.rasp.common.yandex.ru/en/api/user-orders/?debug_user_uid=306907117&limit=2&offset=2",
  "previous": null,
  "results": [
    {
      "insuranceAutoReturn": false,
      "status": "done",
      "uid": "cbf7478b53ad4bba9d2b587a34f210b7",
      "maxPendingTill": null,
      "trainName": null,
      "endStation": {
        "ufsTitle": "С-ПЕТЕРБУР (С-ПЕТЕР-ГЛ)",
        "settlementGeoId": 2,
        "settlementId": 2,
        "title": "Sankt-Peterburg-Moskovskiy",
        "country": null,
        "railwayTimezone": "Europe/Moscow",
        "settlementTitle": "Saint-Petersburg",
        "popularTitle": "Sankt-Peterburg-Moskovskiy",
        "timezone": "Europe/Moscow",
        "id": 9602494
      },
      "carType": "sitting",
      "compartmentGender": "mixed",
      "departure": "2018-06-27T14:30:00+00:00",
      "isSuburban": null,
      "gender": null,
      "partner": "im",
      "insuranceStatus": null,
      "carNumber": "05",
      "error": null,
      "trainTicketNumber": "772А",
      "orderNumber": "74480868343630",
      "reservedTo": "2018-06-27T11:23:04+00:00",
      "rebookingAvailable": false,
      "specialNotice": "ПРЕДВАРИТЕЛЬНЫЙ ДОСМОТР НА ВОКЗАЛЕ",
      "timeNotice": null,
      "stationTo": {
        "ufsTitle": "САНКТ-ПЕТЕРБУРГ-ГЛАВН. (МОСКОВСКИЙ ВОКЗАЛ)",
        "settlementGeoId": 2,
        "settlementId": 2,
        "title": "Sankt-Peterburg-Moskovskiy",
        "country": null,
        "railwayTimezone": "Europe/Moscow",
        "settlementTitle": "Saint-Petersburg",
        "popularTitle": "Sankt-Peterburg-Moskovskiy",
        "timezone": "Europe/Moscow",
        "id": 9602494
      },
      "insuranceEnabled": null,
      "arrival": "2018-06-27T18:16:00+00:00",
      "isOnlyFullReturnPossible": false,
      "travelStatus": "Done",
      "twoStorey": false,
      "paymentUrl": "https://trust-test.yandex.ru/web/payment?purchase_token=a6f42f20b2c2f89f74931e17939abbba",
      "userInfo": {
        "uid": "306907117",
        "ip": "2a02:6b8:0:2807:4c28:6758:46ac:2d22",
        "regionId": 213,
        "phone": "+79122548585",
        "yandex_uid": "4043539531513843867",
        "email": "a@66.ru",
        "isMobile": false
      },
      "paymentCode": null,
      "paymentReceiptUrl": "https://trust-test.yandex.ru/pchecks/a6f42f20b2c2f89f74931e17939abbba/receipts/a6f42f20b2c2f89f74931e17939abbba/?mode=pdf",
      "trainNumber": "772А",
      "passengers": [
        {
          "tickets": [
            {
              "refund": null,
              "tariffInfo": {
                "minAge": 0,
                "title": "Полный",
                "minAgeIncludesBirthday": false,
                "maxAge": 150,
                "withoutPlace": false,
                "code": "full",
                "needDocument": false,
                "maxAgeIncludesBirthday": false
              },
              "places": [
                "016"
              ],
              "isExternalRefund": false,
              "isRefunding": false,
              "rzhdStatus": "REMOTE_CHECK_IN",
              "placesType": {
                "code": "near_table",
                "description": "У стола"
              },
              "isMoneyReturned": false,
              "amount": 8418.24,
              "pending": false,
              "isRefundable": true,
              "rawTariffTitle": "ПОЛНЫЙ",
              "payment": {
                "amount": 7584.0,
                "fee": 834.24,
                "beddingAmount": 2099.0,
                "beddingFee": 0.0
              },
              "blankId": "410038"
            }
          ],
          "citizenship": "RUS",
          "firstName": "Антон",
          "lastName": "Боярских",
          "age": 34.0,
          "docType": "ПН",
          "sex": "M",
          "insurance": null,
          "patronymic": "Олегович",
          "customerId": null
        }
      ],
      "refundPayments": [],
      "startStation": {
        "ufsTitle": "МОСКВА (МОСКВА ОКТ)",
        "settlementGeoId": 213,
        "settlementId": 213,
        "title": "Moscow-Oktyabrskaya",
        "country": null,
        "railwayTimezone": "Europe/Moscow",
        "settlementTitle": "Moscow",
        "popularTitle": "Moscow-Oktyabrskaya",
        "timezone": "Europe/Moscow",
        "id": 2006004
      },
      "paymentStatus": "cleared",
      "isReservationProlonged": false,
      "stationFrom": {
        "ufsTitle": "МОСКВА ОКТЯБРЬСКАЯ (ЛЕНИНГРАДСКИЙ ВОКЗАЛ)",
        "settlementGeoId": 213,
        "settlementId": 213,
        "title": "Moscow-Oktyabrskaya",
        "country": null,
        "railwayTimezone": "Europe/Moscow",
        "settlementTitle": "Moscow",
        "popularTitle": "Moscow-Oktyabrskaya",
        "timezone": "Europe/Moscow",
        "id": 2006004
      },
      "ticketsStatusFreezesAt": "2018-06-27T13:30:00+00:00",
      "coachOwner": "ДОСС РЖД"
    },
    {
      "insuranceAutoReturn": false,
      "status": "done",
      "uid": "1e1b376000ff47cb85f9d5e5c8f21f61",
      "maxPendingTill": null,
      "trainName": null,
      "endStation": {
        "ufsTitle": "СЫКТЫВКАР",
        "settlementGeoId": 19,
        "settlementId": 19,
        "title": "Syktyvkar",
        "country": null,
        "railwayTimezone": "Europe/Moscow",
        "settlementTitle": "Syktyvkar",
        "popularTitle": "Syktyvkar",
        "timezone": "Europe/Moscow",
        "id": 9604201
      },
      "carType": "platzkarte",
      "compartmentGender": "mixed",
      "departure": "2018-06-14T17:00:00+00:00",
      "isSuburban": null,
      "gender": null,
      "partner": "im",
      "insuranceStatus": null,
      "carNumber": "23",
      "error": null,
      "trainTicketNumber": "305МЯ",
      "orderNumber": "74130867932726",
      "reservedTo": "2018-05-30T13:47:10+00:00",
      "rebookingAvailable": false,
      "specialNotice": null,
      "timeNotice": "ВРЕМЯ ОТПРАВЛЕНИЯ МОСКОВСКОЕ",
      "stationTo": {
        "ufsTitle": "МИКУНЬ",
        "settlementGeoId": 21695,
        "settlementId": 21695,
        "title": "Mikun",
        "country": null,
        "railwayTimezone": "Europe/Moscow",
        "settlementTitle": "Mikun",
        "popularTitle": "Mikun",
        "timezone": "Europe/Moscow",
        "id": 9604133
      },
      "insuranceEnabled": null,
      "arrival": "2018-06-15T10:18:00+00:00",
      "isOnlyFullReturnPossible": false,
      "travelStatus": "Done",
      "twoStorey": false,
      "paymentUrl": "https://trust-test.yandex.ru/web/payment?purchase_token=03ae64e5833f7ac9068f939758589309",
      "userInfo": {
        "uid": "306907117",
        "ip": "2a02:6b8:0:2807:cba:aa97:c61e:481d",
        "regionId": 54,
        "phone": "+79122548585",
        "yandex_uid": "4043539531513843867",
        "email": "a@66.ru",
        "isMobile": false
      },
      "paymentCode": null,
      "paymentReceiptUrl": "https://trust-test.yandex.ru/pchecks/03ae64e5833f7ac9068f939758589309/receipts/03ae64e5833f7ac9068f939758589309/?mode=pdf",
      "trainNumber": "305Я",
      "passengers": [
        {
          "tickets": [
            {
              "refund": null,
              "tariffInfo": {
                "minAge": 0,
                "title": "Полный",
                "minAgeIncludesBirthday": false,
                "maxAge": 150,
                "withoutPlace": false,
                "code": "full",
                "needDocument": false,
                "maxAgeIncludesBirthday": false
              },
              "places": [
                "020"
              ],
              "isExternalRefund": false,
              "isRefunding": false,
              "rzhdStatus": "REMOTE_CHECK_IN",
              "placesType": {
                "code": "upper_tier",
                "description": "Верхний ярус"
              },
              "isMoneyReturned": false,
              "amount": 1676.55,
              "pending": false,
              "isRefundable": true,
              "rawTariffTitle": "ПОЛНЫЙ",
              "payment": {
                "amount": 1524.1,
                "fee": 152.45,
                "beddingAmount": 138.2,
                "beddingFee": 0.0
              },
              "blankId": "362292"
            }
          ],
          "citizenship": "RUS",
          "firstName": "Антон",
          "lastName": "Боярских",
          "age": 33.0,
          "docType": "ПН",
          "sex": "M",
          "insurance": null,
          "patronymic": "Олегович",
          "customerId": null
        }
      ],
      "refundPayments": [],
      "startStation": {
        "ufsTitle": "УСИНСК",
        "settlementGeoId": 10944,
        "settlementId": 10944,
        "title": "Usinsk",
        "country": null,
        "railwayTimezone": "Europe/Moscow",
        "settlementTitle": "Usinsk",
        "popularTitle": "Usinsk",
        "timezone": "Europe/Moscow",
        "id": 9604250
      },
      "paymentStatus": "cleared",
      "isReservationProlonged": false,
      "stationFrom": {
        "ufsTitle": "УСИНСК",
        "settlementGeoId": 10944,
        "settlementId": 10944,
        "title": "Usinsk",
        "country": null,
        "railwayTimezone": "Europe/Moscow",
        "settlementTitle": "Usinsk",
        "popularTitle": "Usinsk",
        "timezone": "Europe/Moscow",
        "id": 9604250
      },
      "ticketsStatusFreezesAt": "2018-06-14T16:00:00+00:00",
      "coachOwner": "ФПК ГОРЬКОВСКИЙ"
    }
  ]
}
