{
  "pagination": {
    "total": 234,
    "page": 1,
    "page_size": 10,
    "page_count": 24,
    "next": "http://cat.ratengoods.com/data-api/v0.10/product_review/?filter=%7B%22updated_gt%22%3A+%222019-11-10%22%7D&page=2",
    "previous": null
  },
  "results": [
    {
      "identifiers": [
        {
          "type": "GTIN",
          "key": "4444444444444"
        }
      ],
      "product_rating": "3.6",
      "updated": "2019-12-02T12:19:49.199916+03:00",
      "text": "Так себе сгущенка",
      "rate": 0,
      "author": {
        "first_name": "Сергей",
        "last_name": "Плюшкин",
        "status": "@expert"
      },
      "count_comments": 2,
      "count_likes": 1,
      "link": "https://go.ratengoods.com/api?campaign=2964400&channel=api&$deeplink_path=ratengoods.com%2Fproduct%2Freviews%2F%3Fproduct_id%3D6243887&$desktop_url=https%3A%2F%2Fratengoods.com%2Fgoods%2F6243887%2F",
      "manufacturer_comment": {
        "text": "Спасибо!",
        "created": "2019-10-09T13:29:41.483155Z"
      }
    }
  ]
}