{
    "content": [
        {
            "externalId": "4",
            "inboundExternalId": "4",
            "inboundStatus": "CREATED",
            "acceptedAmount": 0,
            "totalAmount": 5,
            "palletAmount": 0,
            "plannedPalletAmount": 3,
            "arrivalIntervalStart": "2020-04-16T13:36:34",
            "arrivalIntervalEnd": "2020-04-16T13:36:34",
            "supplierName": "ООО Ромашка-Склад, ООО Ромашка-Склад",
            "courierName": "name",
            "actions": ["FIX_INBOUND"],
            "complexActions": []
        }
    ],
    "pageable": {
        "sort": {
            "sorted": false,
            "unsorted": true,
            "empty": true
        },
        "pageNumber": 1,
        "pageSize": 2,
        "offset": 2,
        "paged": true,
        "unpaged": false
    },
    "totalElements": 3,
    "totalPages": 2,
    "first": false,
    "last": true,
    "sort": {
        "sorted": false,
        "unsorted": true,
        "empty": true
    },
    "number": 1,
    "numberOfElements": 1,
    "size": 2,
    "empty": false,
    "groupActions":[],
    "simpleActions":[]
}
