{
    "content": [
        {
            "externalId": "1",
            "inboundExternalId": "1",
            "inboundStatus": "NEED_SORTING",
            "palletAmount": 2,
            "plannedPalletAmount": 2,
            "boxAmount": 1,
            "plannedBoxAmount": 1,
            "startedAt": "2020-04-16T13:36:34",
            "arrivalIntervalStart": "2020-04-16T13:36:34",
            "arrivalIntervalEnd": "2020-04-16T13:36:34",
            "supplierName": "ООО Ромашка-Склад",
            "courierName": "name",
            "actions": [],
            "complexActions": ["GET_INBOUND_INFO"],
            "carInfo":{}
        },
        {
            "externalId": "3",
            "inboundExternalId": "3",
            "inboundStatus": "NEED_SORTING",
            "palletAmount": 2,
            "boxAmount": 1,
            "startedAt": "2020-04-16T13:36:34",
            "arrivalIntervalStart": "2020-04-16T13:36:34",
            "arrivalIntervalEnd": "2020-04-16T13:36:34",
            "supplierName": "ООО Ромашка-Склад",
            "courierName": "name",
            "actions": [],
            "complexActions": ["GET_INBOUND_INFO"],
            "carInfo":{}
        }
    ],
    "pageable": {
        "sort": {
            "sorted": false,
            "unsorted": true,
            "empty": true
        },
        "pageNumber": 0,
        "pageSize": 2,
        "offset": 0,
        "paged": true,
        "unpaged": false
    },
    "totalElements": 3,
    "totalPages": 2,
    "first": true,
    "last": false,
    "sort": {
        "sorted": false,
        "unsorted": true,
        "empty": true
    },
    "number": 0,
    "numberOfElements": 2,
    "size": 2,
    "empty": false,
    "groupActions":[],
    "simpleActions":[]
}
