{
    "totalPages": 2,
    "pageNumber": 0,
    "totalElements": 3,
    "requestItems": [
        {
            "article": "abcdefg",
            "barcodes": [
                "11",
                "22"
            ],
            "count": 3,
            "factCount": 15,
            "defectCount": 0,
            "surplusCount": 12,
            "shortageCount": 0,
            "name": "offer_1",
            "marketName": "gfbb",
            "sku": 1,
            "supplyPrice": 50.50,
            "vatRate": 5,
            "orderId": "65423",
            "supplierId": 1,
            "holds": {},
            "boxCount": 0,
            "boxCountSummary": [],
            "cargoTypes": [],
            "errors": [
                "NO_MARKET_SKU_MAPPING_FOUND",
                "NO_PREVIOUS_SUPPLY_WITH_ARTICLE_AND_SUPPLIER_FOUND"
            ],
            "validationErrors": [
                {
                    "type": "NO_MARKET_SKU_MAPPING_FOUND"
                },
                {
                    "type": "NO_PREVIOUS_SUPPLY_WITH_ARTICLE_AND_SUPPLIER_FOUND",
                    "attributes": [
                        {
                            "type": "CURRENTLY_ON_STOCK",
                            "value": "33"
                        }
                    ]
                }
            ],
            "mboErrors": [
                {
                    "type": "TestCode",
                    "attributes": "TestData",
                    "template": "TestTemplate"
                }
            ],
            "unitId": {
                "parts": [
                    {
                        "type": "CIS",
                        "value": "1"
                    },
                    {
                        "type": "CIS",
                        "value": "2"
                    },
                    {
                        "type": "IMEI",
                        "value": "7"
                    },
                    {
                        "type": "IMEI",
                        "value": "f"
                    }
                ]
            },
            "factUnitId": {
                "parts": [
                    {
                        "type": "CIS",
                        "value": "11"
                    },
                    {
                        "type": "CIS",
                        "value": "22"
                    },
                    {
                        "type": "IMEI",
                        "value": "77"
                    },
                    {
                        "type": "IMEI",
                        "value": "ff"
                    }
                ]
            },
            "factUnfitUnitId": {
                "parts": [
                    {
                        "type": "CIS",
                        "value": "12345-cis1-unfit"
                    },
                    {
                        "type": "IMEI",
                        "value": "12345-imei-1"
                    },
                    {
                        "type": "CIS",
                        "value": "12345-cis2-unfit"
                    },
                    {
                        "type": "IMEI",
                        "value": "12345-imei-2"
                    }
                ]
            }
        },
        {
            "article": "abc",
            "barcodes": [
                "11",
                "22"
            ],
            "count": 3,
            "factCount": 2,
            "defectCount": 0,
            "surplusCount": 0,
            "shortageCount": 1,
            "name": "offer_2",
            "sku": 2,
            "supplyPrice": 50.50,
            "vatRate": 5,
            "supplierId": 1,
            "holds": {},
            "boxCount": 0,
            "boxCountSummary": [],
            "cargoTypes": [],
            "unitId": {
                "parts": [
                    {
                        "type": "CIS",
                        "value": "3"
                    },
                    {
                        "type": "CIS",
                        "value": "4"
                    },
                    {
                        "type": "IMEI",
                        "value": "8"
                    },
                    {
                        "type": "IMEI",
                        "value": "g"
                    }
                ]
            },
            "factUnitId": {
                "parts": [
                    {
                        "type": "CIS",
                        "value": "33"
                    },
                    {
                        "type": "CIS",
                        "value": "44"
                    },
                    {
                        "type": "IMEI",
                        "value": "88"
                    },
                    {
                        "type": "IMEI",
                        "value": "gg"
                    }
                ]
            },
            "factUnfitUnitId": {
                "parts": [
                    {
                        "type": "CIS",
                        "value": "12345-cis3-unfit"
                    },
                    {
                        "type": "IMEI",
                        "value": "12345-imei-3"
                    },
                    {
                        "type": "CIS",
                        "value": "12345-cis4-unfit"
                    },
                    {
                        "type": "IMEI",
                        "value": "12345-imei-4"
                    }
                ]
            }
        }
    ],
    "totalCount": 11,
    "totalFactCount": 21,
    "totalDefectCount": 1,
    "totalSurplusCount": 12,
    "totalShortageCount": 1,
    "totalSupplyPrice": 555.50,
    "size": 2
}
