{
  "paging": {
    "pageNumber": 0,
    "pageSize": 4,
    "totalPages": 2,
    "totalElements": 5
  },
  "models": [
    {
      "id": 4,
      "categoryId": 91491,
      "brandId": 153043,
      "name": "newiphone X PRO"
    },
    {
      "id": 2,
      "categoryId": 91491,
      "brandId": 153043,
      "name": "iphone 4S"
    },
    {
      "id": 3,
      "categoryId": 91491,
      "brandId": 153043,
      "name": "iphone X"
    },
    {
      "id": 6,
      "categoryId": 91491,
      "brandId": 153043,
      "name": "ip"
    }
  ]
}