{
  "paging": {
    "pageNumber": 2,
    "pageSize": 2,
    "totalPages": 3,
    "totalElements": 5
  },
  "models": [
    {
      "id": 4,
      "categoryId": 91491,
      "brandId": 153043,
      "name": "newiphone X PRO"
    }
  ]
}