{
    "result": {
        "pager": {
            "page": 1,
            "pages": 5,
            "total": 9
        },
        "items": [
            {
                "id": 5,
                "name": "Yohoho",
                "parentCategories": [
                    {
                        "id": 91491,
                        "name": "Все товары/Электроника/Телефоны/Мобильные телефоны",
                        "path": [
                            "Все товары",
                            "Электроника",
                            "Телефоны",
                            "Мобильные телефоны"
                        ],
                        "outputType": "GURU",
                        "grouped": false,
                        "canCreateSku": true,
                        "acceptGoodContent": false
                    }
                ],
                "siblingCategories": [
                    {
                        "id": 10498025,
                        "name": "Все товары/Электроника/Телефоны/Умные часы и браслеты",
                        "path": [
                            "Все товары",
                            "Электроника",
                            "Телефоны",
                            "Умные часы и браслеты"
                        ],
                        "outputType": "GURU",
                        "grouped": false,
                        "canCreateSku": true,
                        "acceptGoodContent": true
                    }
                ],
                "customCategories": [],
                "bid": 5,
                "models": [
                    1429703292,
                    1448810179
                ],
                "incutState": "ACTIVE",
                "targetPlace": "SEARCH",
                "transitions": []
            },
            {
                "id": 9,
                "name": "Big Инкат",
                "parentCategories": [
                    {
                        "id": 91491,
                        "name": "Все товары/Электроника/Телефоны/Мобильные телефоны",
                        "path": [
                            "Все товары",
                            "Электроника",
                            "Телефоны",
                            "Мобильные телефоны"
                        ],
                        "outputType": "GURU",
                        "grouped": false,
                        "canCreateSku": true,
                        "acceptGoodContent": false
                    }
                ],
                "siblingCategories": [
                    {
                        "id": 10498025,
                        "name": "Все товары/Электроника/Телефоны/Умные часы и браслеты",
                        "path": [
                            "Все товары",
                            "Электроника",
                            "Телефоны",
                            "Умные часы и браслеты"
                        ],
                        "outputType": "GURU",
                        "grouped": false,
                        "canCreateSku": true,
                        "acceptGoodContent": true
                    }
                ],
                "customCategories": [],
                "bid": 55,
                "models": [
                    1429703292,
                    1448810179
                ],
                "incutState": "ACTIVE",
                "targetPlace": "SEARCH",
                "transitions": []
            }
        ]
    }
}
