{
    "data": [
        {
            "active": true,
            "movementPartner": {
                "id": 100,
                "name": "Partner 100",
                "segmentGroups": [
                    {
                        "segments": [
                            {
                                "id": 1,
                                "logisticsPointId": null,
                                "name": "Segment 1"
                            }
                        ],
                        "segmentsCount": 1,
                        "type": "MOVEMENT"
                    }
                ],
                "type": "DELIVERY"
            },
            "partnersFrom": [
                {
                    "id": 1,
                    "name": "Partner 1",
                    "segmentGroups": [
                        {
                            "segments": [
                                {
                                    "id": 4,
                                    "logisticsPointId": 4,
                                    "name": "Segment 4"
                                }
                            ],
                            "segmentsCount": 1,
                            "type": "WAREHOUSE"
                        }
                    ],
                    "type": "FULFILLMENT"
                }
            ],
            "partnersTo": [
                {
                    "id": 2,
                    "name": "Partner 2",
                    "segmentGroups": [
                        {
                            "segments": [
                                {
                                    "id": 5,
                                    "logisticsPointId": 5,
                                    "name": "Segment 5"
                                }
                            ],
                            "segmentsCount": 1,
                            "type": "WAREHOUSE"
                        }
                    ],
                    "type": "DELIVERY"
                }
            ],
            "type": "SC_TO_MC"
        },
        {
            "active": true,
            "movementPartner": {
                "id": 100,
                "name": "Partner 100",
                "segmentGroups": [
                    {
                        "segments": [
                            {
                                "id": 2,
                                "logisticsPointId": null,
                                "name": "Segment 2"
                            }
                        ],
                        "segmentsCount": 1,
                        "type": "MOVEMENT"
                    }
                ],
                "type": "DELIVERY"
            },
            "partnersFrom": [
                {
                    "id": 2,
                    "name": "Partner 2",
                    "segmentGroups": [
                        {
                            "segments": [
                                {
                                    "id": 8,
                                    "logisticsPointId": 8,
                                    "name": "Segment 8"
                                }
                            ],
                            "segmentsCount": 1,
                            "type": "WAREHOUSE"
                        }
                    ],
                    "type": "DELIVERY"
                }
            ],
            "partnersTo": [
                {
                    "id": 3,
                    "name": "Partner 3",
                    "segmentGroups": [
                        {
                            "segments": [
                                {
                                    "id": 9,
                                    "logisticsPointId": 9,
                                    "name": "Segment 9"
                                }
                            ],
                            "segmentsCount": 1,
                            "type": "LINEHAUL"
                        }
                    ],
                    "type": "DELIVERY"
                }
            ],
            "type": "NOT_LOGISTRATOR_TYPE"
        },
        {
            "active": true,
            "movementPartner": {
                "id": 100,
                "name": "Partner 100",
                "segmentGroups": [
                    {
                        "segments": [
                            {
                                "id": 3,
                                "logisticsPointId": null,
                                "name": "Segment 3"
                            }
                        ],
                        "segmentsCount": 1,
                        "type": "MOVEMENT"
                    }
                ],
                "type": "DELIVERY"
            },
            "partnersFrom": [
                {
                    "id": 1,
                    "name": "Partner 1",
                    "segmentGroups": [
                        {
                            "segments": [
                                {
                                    "id": 6,
                                    "logisticsPointId": 6,
                                    "name": "Segment 6"
                                }
                            ],
                            "segmentsCount": 1,
                            "type": "WAREHOUSE"
                        }
                    ],
                    "type": "FULFILLMENT"
                }
            ],
            "partnersTo": [
                {
                    "id": 3,
                    "name": "Partner 3",
                    "segmentGroups": [
                        {
                            "segments": [
                                {
                                    "id": 7,
                                    "logisticsPointId": 7,
                                    "name": "Segment 7"
                                }
                            ],
                            "segmentsCount": 1,
                            "type": "LINEHAUL"
                        }
                    ],
                    "type": "DELIVERY"
                }
            ],
            "type": "SC_TO_MC"
        }
    ],
    "page": 2,
    "size": 3,
    "totalElements": 11,
    "totalPages": 3
}
