{
    "result": {
        "pager": {
            "page": 2,
            "pages": 2,
            "total": 5
        },
        "items": [
            {
                "id": 8,
                "name": "My Инкат",
                "parentCategories": [
                    {
                        "id": 91491,
                        "name": "Все товары/Электроника/Телефоны/Мобильные телефоны",
                        "path": [
                            "Все товары",
                            "Электроника",
                            "Телефоны",
                            "Мобильные телефоны"
                        ],
                        "outputType": "GURU",
                        "grouped": false,
                        "canCreateSku": true,
                        "acceptGoodContent": false
                    }
                ],
                "siblingCategories": [
                    {
                        "id": 10498025,
                        "name": "Все товары/Электроника/Телефоны/Умные часы и браслеты",
                        "path": [
                            "Все товары",
                            "Электроника",
                            "Телефоны",
                            "Умные часы и браслеты"
                        ],
                        "outputType": "GURU",
                        "grouped": false,
                        "canCreateSku": true,
                        "acceptGoodContent": true
                    }
                ],
                "customCategories": [],
                "bid": 45,
                "models": [
                    1429703292,
                    1448810179
                ],
                "incutState": "ACTIVE",
                "targetPlace": "SEARCH",
                "transitions": []
            }
        ]
    }
}
