{"success":true,"result":[{"id":7099941,"calllist_item_id":15446066,"datetime_start":"2020-03-14 07:07:48","datetime_end":"2020-03-14 07:08:26","attempt_num":1,"record_url":"","attempt_status":false,"call_data":"{\"UTC\": \"Europe/Moscow\", \"date\": \"15 марта\", \"name\": \"эмиль\", \"phone\": \"79099020008\", \"ticket\": \"ticket@438292968\", \"orderId\": \"15587535\", \"order_amount\": \"808\"}","attempt_cost":0,"session_id":1107459505,"duration":0,"recalc":false,"campaign_id":5237,"call_result_code":1,"call_resources":null,"call_calls":null,"call_records":null,"processing":false},{"id":7099939,"calllist_item_id":15446065,"datetime_start":"2020-03-14 07:07:37","datetime_end":"2020-03-14 07:08:13","attempt_num":1,"record_url":"https://storage-gw-ru-02.voximplant.com/vox-records/2020/03/14/MjA3NDk1ODAwOTY4ZDdkMzEzNGRlMmZhYjcyNzRlODUvaHR0cDovL3d3dy1ydS0yMi0xNi52b3hpbXBsYW50LmNvbS9yZWNvcmRzLzIwMjAvMDMvMTQvNTJEMjlDQTVFNzI5NzY1Ni4xNTg0MTY5NjY1LjE2MDAyMC5tcDM-?record_id=230947569","attempt_status":true,"call_data":"{\"UTC\": \"Europe/Moscow\", \"date\": \"18 марта\", \"name\": \"Медведев\", \"phone\": \"79397835308\", \"ticket\": \"ticket@438568969\", \"orderId\": \"15599440\", \"order_real\": \"1\", \"new_version\": \"1\", \"order_amount\": \"13994\", \"successful_call\": \"1\", \"antifraud_confirm\": \"оформлял\"}","attempt_cost":0,"session_id":1107459163,"duration":0,"recalc":false,"campaign_id":5237,"call_result_code":3,"call_resources":null,"call_calls":null,"call_records":null,"processing":false},{"id":7099938,"calllist_item_id":15446068,"datetime_start":"2020-03-14 07:07:50","datetime_end":"2020-03-14 07:08:12","attempt_num":1,"record_url":"https://storage-gw-ru-02.voximplant.com/vox-records/2020/03/14/M2I5ZjE0NDY1MGY0OGI3ZWI4MzY4ZDYwZjAzYjg5MWUvaHR0cDovL3d3dy1ydS0zMC0yMjkudm94aW1wbGFudC5jb20vcmVjb3Jkcy8yMDIwLzAzLzE0L0Q2QkI2NzM5OTVCQkIzMzUuMTU4NDE2OTY5MS4xNTY3MjQubXAz?record_id=230947786","attempt_status":false,"call_data":"{\"UTC\": \"Europe/Moscow\", \"date\": \"20 марта\", \"name\": \"Джамал\", \"phone\": \"79189319388\", \"ticket\": \"ticket@438568905\", \"orderId\": \"15593191\", \"new_version\": \"1\", \"order_amount\": \"1101\"}","attempt_cost":0,"session_id":1107459577,"duration":0,"recalc":false,"campaign_id":5237,"call_result_code":2,"call_resources":null,"call_calls":null,"call_records":null,"processing":false},{"id":7099934,"calllist_item_id":15446063,"datetime_start":"2020-03-14 07:07:17","datetime_end":"2020-03-14 07:07:50","attempt_num":1,"record_url":"https://storage-gw-ru-02.voximplant.com/vox-records/2020/03/14/YzU1MWUwZWM2YjI5ZmQxNDRkNGZjNmQyYmI4NjU1ZjcvaHR0cDovL3d3dy1ydS0yNy0yMi52b3hpbXBsYW50LmNvbS9yZWNvcmRzLzIwMjAvMDMvMTQvRjBFNkJCMkYxQTFDMjVFRC4xNTg0MTY5NjQzLjE1ODQ3MS5tcDM-?record_id=230947381","attempt_status":true,"call_data":"{\"UTC\": \"Europe/Moscow\", \"date\": \"19 марта\", \"name\": \"Анна\", \"phone\": \"79215560051\", \"ticket\": \"ticket@438492499\", \"orderId\": \"15597456\", \"order_real\": \"1\", \"new_version\": \"1\", \"order_amount\": \"1224\", \"successful_call\": \"1\", \"antifraud_confirm\": \"беру\"}","attempt_cost":0,"session_id":1107458473,"duration":0,"recalc":false,"campaign_id":5237,"call_result_code":3,"call_resources":null,"call_calls":null,"call_records":null,"processing":false},{"id":7099935,"calllist_item_id":15446062,"datetime_start":"2020-03-14 07:07:14","datetime_end":"2020-03-14 07:07:50","attempt_num":1,"record_url":"https://storage-gw-ru-02.voximplant.com/vox-records/2020/03/14/M2YyZDVhMGE3MWVlYzc2MWY1NWQ4NDJjNmJlMTdmMDIvaHR0cDovL3d3dy1ydS0xMi0yNDgudm94aW1wbGFudC5jb20vcmVjb3Jkcy8yMDIwLzAzLzE0L0EyNDkyOTBDNkI4MTcxRjAuMTU4NDE2OTY0NC4yNzUxNDUubXAz?record_id=230947388","attempt_status":true,"call_data":"{\"UTC\": \"Europe/Moscow\", \"date\": \"17 марта\", \"name\": \"Ирина\", \"phone\": \"79037732270\", \"ticket\": \"ticket@438518579\", \"orderId\": \"15596967\", \"order_real\": \"1\", \"new_version\": \"1\", \"order_amount\": \"890\", \"successful_call\": \"1\", \"antifraud_confirm\": \"да\"}","attempt_cost":0,"session_id":1107458363,"duration":0,"recalc":false,"campaign_id":5237,"call_result_code":3,"call_resources":null,"call_calls":null,"call_records":null,"processing":false},{"id":7099933,"calllist_item_id":15446061,"datetime_start":"2020-03-14 07:07:01","datetime_end":"2020-03-14 07:07:47","attempt_num":1,"record_url":"https://storage-gw-ru-02.voximplant.com/vox-records/2020/03/14/MGU3N2E1OWVmYTBmNDZhYzFiMjM2NTU1ZWNjNGI5ZDIvaHR0cDovL3d3dy1ydS0zMS0yMjcudm94aW1wbGFudC5jb20vcmVjb3Jkcy8yMDIwLzAzLzE0LzY3MDQ4RkQwODk1MkFFNzIuMTU4NDE2OTYzOS4xNTY5MjAubXAz?record_id=230947338","attempt_status":true,"call_data":"{\"UTC\": \"Europe/Moscow\", \"date\": \"с 17 марта по 18 марта\", \"name\": \"Арина\", \"phone\": \"79213957820\", \"ticket\": \"ticket@438292970\", \"orderId\": \"15587595\", \"order_real\": \"1\", \"new_version\": \"1\", \"order_amount\": \"4460\", \"successful_call\": \"1\", \"antifraud_confirm\": \"Да конечно\"}","attempt_cost":0,"session_id":1107457943,"duration":0,"recalc":false,"campaign_id":5237,"call_result_code":3,"call_resources":null,"call_calls":null,"call_records":null,"processing":false},{"id":7099931,"calllist_item_id":15446059,"datetime_start":"2020-03-14 07:07:00","datetime_end":"2020-03-14 07:07:36","attempt_num":1,"record_url":"https://storage-gw-ru-02.voximplant.com/vox-records/2020/03/14/MTU2M2Q3MjRjYzU0YzY1OWRkYTc0NDFjNDZmOWRkOTQvaHR0cDovL3d3dy1ydS0yMC0xMi52b3hpbXBsYW50LmNvbS9yZWNvcmRzLzIwMjAvMDMvMTQvMTRBMjEwNTBDRDJCRkE4NC4xNTg0MTY5NjI5LjE2MTUyNi5tcDM-?record_id=230947240","attempt_status":true,"call_data":"{\"UTC\": \"Europe/Moscow\", \"date\": \"16 марта\", \"name\": \"Наталия\", \"phone\": \"79099306738\", \"ticket\": \"ticket@438518537\", \"orderId\": \"15594776\", \"order_real\": \"1\", \"new_version\": \"1\", \"order_amount\": \"2796\", \"successful_call\": \"1\", \"antifraud_confirm\": \"Перу\"}","attempt_cost":0,"session_id":1107457885,"duration":0,"recalc":false,"campaign_id":5237,"call_result_code":3,"call_resources":null,"call_calls":null,"call_records":null,"processing":false},{"id":7099932,"calllist_item_id":15446060,"datetime_start":"2020-03-14 07:07:00","datetime_end":"2020-03-14 07:07:36","attempt_num":1,"record_url":"https://storage-gw-ru-02.voximplant.com/vox-records/2020/03/14/ZTFiZTVmYzgyNzUwOGNkYTk4MmZlOTdkZDA5Yjc0YWUvaHR0cDovL3d3dy1ydS0xOS0yMzYudm94aW1wbGFudC5jb20vcmVjb3Jkcy8yMDIwLzAzLzE0L0UwMUY2MjhCREJCRDUxNzkuMTU4NDE2OTYzMS4xNjQyMTEubXAz?record_id=230947258","attempt_status":true,"call_data":"{\"UTC\": \"Europe/Moscow\", \"date\": \"16 марта\", \"name\": \"Владимир\", \"phone\": \"79050596797\", \"ticket\": \"ticket@438518512\", \"orderId\": \"15592129\", \"order_real\": \"1\", \"new_version\": \"1\", \"order_amount\": \"64500\", \"successful_call\": \"1\", \"antifraud_confirm\": \"беру\"}","attempt_cost":0,"session_id":1107457883,"duration":0,"recalc":false,"campaign_id":5237,"call_result_code":3,"call_resources":null,"call_calls":null,"call_records":null,"processing":false},{"id":7099930,"calllist_item_id":15446058,"datetime_start":"2020-03-14 07:06:39","datetime_end":"2020-03-14 07:07:15","attempt_num":1,"record_url":"https://storage-gw-ru-02.voximplant.com/vox-records/2020/03/14/ZmRmZmE1NjhkNWRhMmY1MWMwYmU4YmU5ZjNmNTNhOTAvaHR0cDovL3d3dy1ydS0yMS0xNC52b3hpbXBsYW50LmNvbS9yZWNvcmRzLzIwMjAvMDMvMTQvOEUyQkMxNTM3Qzg1MjU4NS4xNTg0MTY5NjExLjE1OTc3MC5tcDM-?record_id=230947094","attempt_status":true,"call_data":"{\"UTC\": \"Europe/Moscow\", \"date\": \"15 марта\", \"name\": \"Мария\", \"phone\": \"79606099998\", \"ticket\": \"ticket@438820026\", \"orderId\": \"15599384\", \"order_real\": \"1\", \"new_version\": \"1\", \"order_amount\": \"1509\", \"successful_call\": \"1\", \"antifraud_confirm\": \"Да беру\"}","attempt_cost":0,"session_id":1107457269,"duration":0,"recalc":false,"campaign_id":5237,"call_result_code":3,"call_resources":null,"call_calls":null,"call_records":null,"processing":false},{"id":7099929,"calllist_item_id":15446055,"datetime_start":"2020-03-14 07:06:08","datetime_end":"2020-03-14 07:07:13","attempt_num":1,"record_url":"https://storage-gw-ru-02.voximplant.com/vox-records/2020/03/14/Mjc2ZTVmYjg1YWIwNWJhMmY2NGIzZThiNmZiNjViNDYvaHR0cDovL3d3dy1ydS0yMy0xOC52b3hpbXBsYW50LmNvbS9yZWNvcmRzLzIwMjAvMDMvMTQvMjE1NzMwRTI4NDNEMTkxMy4xNTg0MTY5NjA4LjE1Nzk1NC5tcDM-?record_id=230947073","attempt_status":true,"call_data":"{\"UTC\": \"Europe/Moscow\", \"date\": \"17 марта\", \"name\": \"Елизавета\", \"phone\": \"79162479163\", \"ticket\": \"ticket@438397359\", \"orderId\": \"15592748\", \"order_real\": \"1\", \"new_version\": \"1\", \"order_amount\": \"126\", \"successful_call\": \"1\", \"antifraud_confirm\": \"Дарья\"}","attempt_cost":0,"session_id":1107456327,"duration":0,"recalc":false,"campaign_id":5237,"call_result_code":3,"call_resources":null,"call_calls":null,"call_records":null,"processing":false},{"id":7099928,"calllist_item_id":15446057,"datetime_start":"2020-03-14 07:06:18","datetime_end":"2020-03-14 07:07:00","attempt_num":1,"record_url":"https://storage-gw-ru-02.voximplant.com/vox-records/2020/03/14/ZDU0NzRhY2I0Yzg1OTcxZjIyNDVkNWFjMWIxMGQyYTIvaHR0cDovL3d3dy1ydS0yNi0yMC52b3hpbXBsYW50LmNvbS9yZWNvcmRzLzIwMjAvMDMvMTQvQTUxNUJGRTU0QTQwRkE2OC4xNTg0MTY5NTk0LjE1ODM2Ny5tcDM-?record_id=230946949","attempt_status":true,"call_data":"{\"UTC\": \"Europe/Moscow\", \"date\": \"15 марта\", \"name\": \"Ольга\", \"phone\": \"79017096828\", \"ticket\": \"ticket@438782146\", \"orderId\": \"15599493\", \"order_real\": \"1\", \"new_version\": \"1\", \"order_amount\": \"2936\", \"successful_call\": \"1\", \"antifraud_confirm\": \"беру\"}","attempt_cost":0,"session_id":1107456629,"duration":0,"recalc":false,"campaign_id":5237,"call_result_code":3,"call_resources":null,"call_calls":null,"call_records":null,"processing":false},{"id":7099927,"calllist_item_id":15446054,"datetime_start":"2020-03-14 07:05:57","datetime_end":"2020-03-14 07:06:58","attempt_num":1,"record_url":"","attempt_status":false,"call_data":"{\"UTC\": \"Europe/Moscow\", \"date\": \"16 марта\", \"name\": \"Вадим\", \"phone\": \"79215554711\", \"ticket\": \"ticket@438518536\", \"orderId\": \"15594775\", \"order_amount\": \"2690\"}","attempt_cost":0,"session_id":1107455969,"duration":0,"recalc":false,"campaign_id":5237,"call_result_code":408,"call_resources":null,"call_calls":null,"call_records":null,"processing":false},{"id":7099926,"calllist_item_id":15446056,"datetime_start":"2020-03-14 07:06:11","datetime_end":"2020-03-14 07:06:58","attempt_num":1,"record_url":"https://storage-gw-ru-02.voximplant.com/vox-records/2020/03/14/YjExNzdiMDRjYWMxNDNjMTU4N2VjOTczNzU5MmIzODUvaHR0cDovL3d3dy1ydS0zMS0yMjcudm94aW1wbGFudC5jb20vcmVjb3Jkcy8yMDIwLzAzLzE0L0M3NzM3MkE0NzI2MEUzNjYuMTU4NDE2OTU4NC4xNTYzNTAubXAz?record_id=230946873","attempt_status":true,"call_data":"{\"UTC\": \"Europe/Moscow\", \"date\": \"16 марта\", \"name\": \"Георгий\", \"phone\": \"79774387783\", \"ticket\": \"ticket@438292962\", \"orderId\": \"15586669\", \"order_real\": \"1\", \"new_version\": \"1\", \"order_amount\": \"4900\", \"repeat_filter\": \"0\", \"successful_call\": \"1\", \"antifraud_confirm\": \"\"}","attempt_cost":0,"session_id":1107456429,"duration":0,"recalc":false,"campaign_id":5237,"call_result_code":3,"call_resources":null,"call_calls":null,"call_records":null,"processing":false},{"id":7099925,"calllist_item_id":15446052,"datetime_start":"2020-03-14 07:05:51","datetime_end":"2020-03-14 07:06:38","attempt_num":1,"record_url":"https://storage-gw-ru-02.voximplant.com/vox-records/2020/03/14/ZDM0MDZlZDNmYTQ2MDgyNDYwMTcyZDNiYjVjNDgzNGUvaHR0cDovL3d3dy1ydS0yNC0yMzMudm94aW1wbGFudC5jb20vcmVjb3Jkcy8yMDIwLzAzLzE0LzUxQUE4MTg2QkExNEI2MUQuMTU4NDE2OTU3Mi4xNTgzMzUubXAz?record_id=230946754","attempt_status":false,"call_data":"{\"UTC\": \"Europe/Moscow\", \"date\": \"16 марта\", \"name\": \"Иван\", \"phone\": \"79154675580\", \"ticket\": \"ticket@438293669\", \"orderId\": \"15589425\", \"new_version\": \"1\", \"order_amount\": \"77400\", \"repeat_filter\": \"0\", \"antifraud_confirm\": \"\"}","attempt_cost":0,"session_id":1107455749,"duration":0,"recalc":false,"campaign_id":5237,"call_result_code":2,"call_resources":null,"call_calls":null,"call_records":null,"processing":false},{"id":7099924,"calllist_item_id":15446051,"datetime_start":"2020-03-14 07:05:15","datetime_end":"2020-03-14 07:06:16","attempt_num":1,"record_url":"","attempt_status":false,"call_data":"{\"UTC\": \"Europe/Moscow\", \"date\": \"15 марта\", \"name\": \"Ира\", \"phone\": \"79035954330\", \"ticket\": \"ticket@438492440\", \"orderId\": \"15593917\", \"order_amount\": \"3233\"}","attempt_cost":0,"session_id":1107454539,"duration":0,"recalc":false,"campaign_id":5237,"call_result_code":408,"call_resources":null,"call_calls":null,"call_records":null,"processing":false},{"id":7099923,"calllist_item_id":15446053,"datetime_start":"2020-03-14 07:05:53","datetime_end":"2020-03-14 07:06:10","attempt_num":1,"record_url":"https://storage-gw-ru-02.voximplant.com/vox-records/2020/03/14/N2VjZGJlNTM5Zjk0MzU5MmJhMmY1MmIwMjcwNWVjZjgvaHR0cDovL3d3dy1ydS0yMi0xNi52b3hpbXBsYW50LmNvbS9yZWNvcmRzLzIwMjAvMDMvMTQvNkI5QTJFQkU2OTEwQTlBRS4xNTg0MTY5NTY1LjE1ODk5OC5tcDM-?record_id=230946679","attempt_status":false,"call_data":"{\"UTC\": \"Europe/Moscow\", \"date\": \"с 19 марта по 20 марта\", \"name\": \"Дарья\", \"phone\": \"79038374431\", \"ticket\": \"ticket@438518523\", \"orderId\": \"15593211\", \"new_version\": \"1\", \"order_amount\": \"1902\"}","attempt_cost":0,"session_id":1107455809,"duration":0,"recalc":false,"campaign_id":5237,"call_result_code":2,"call_resources":null,"call_calls":null,"call_records":null,"processing":false},{"id":7099922,"calllist_item_id":15446049,"datetime_start":"2020-03-14 07:05:06","datetime_end":"2020-03-14 07:06:07","attempt_num":1,"record_url":"","attempt_status":false,"call_data":"{\"UTC\": \"Europe/Moscow\", \"date\": \"16 марта\", \"name\": \"Олеся\", \"phone\": \"79031308676\", \"ticket\": \"ticket@438562167\", \"orderId\": \"15598532\", \"order_amount\": \"15990\"}","attempt_cost":0,"session_id":1107454235,"duration":0,"recalc":false,"campaign_id":5237,"call_result_code":408,"call_resources":null,"call_calls":null,"call_records":null,"processing":false},{"id":7099921,"calllist_item_id":15446048,"datetime_start":"2020-03-14 07:05:02","datetime_end":"2020-03-14 07:05:56","attempt_num":1,"record_url":"https://storage-gw-ru-02.voximplant.com/vox-records/2020/03/14/Y2M3Njg3NDZmZTEwZGE0YzRjZDJmZTg0YzhkY2M3Y2YvaHR0cDovL3d3dy1ydS0xMi0yNDgudm94aW1wbGFudC5jb20vcmVjb3Jkcy8yMDIwLzAzLzE0L0E2ODhEMDY0RjVFMDg1N0MuMTU4NDE2OTUxNS4yNzQwNTYubXAz?record_id=230946222","attempt_status":true,"call_data":"{\"UTC\": \"Europe/Moscow\", \"date\": \"20 марта\", \"name\": \"Медведев\", \"phone\": \"79397835308\", \"ticket\": \"ticket@438782152\", \"orderId\": \"15599823\", \"order_real\": \"1\", \"new_version\": \"1\", \"order_amount\": \"13994\", \"repeat_filter\": \"0\", \"successful_call\": \"1\", \"antifraud_confirm\": \"\"}","attempt_cost":0,"session_id":1107454043,"duration":0,"recalc":false,"campaign_id":5237,"call_result_code":3,"call_resources":null,"call_calls":null,"call_records":null,"processing":false},{"id":7099920,"calllist_item_id":15446050,"datetime_start":"2020-03-14 07:05:13","datetime_end":"2020-03-14 07:05:52","attempt_num":1,"record_url":"","attempt_status":false,"call_data":"{\"UTC\": \"Europe/Moscow\", \"date\": \"с 19 марта по 20 марта\", \"name\": \"Владимир\", \"phone\": \"79670177358\", \"ticket\": \"ticket@438562124\", \"orderId\": \"15595146\", \"order_amount\": \"15740\"}","attempt_cost":0,"session_id":1107454447,"duration":0,"recalc":false,"campaign_id":5237,"call_result_code":1,"call_resources":null,"call_calls":null,"call_records":null,"processing":false},{"id":7099919,"calllist_item_id":15446047,"datetime_start":"2020-03-14 07:04:49","datetime_end":"2020-03-14 07:05:50","attempt_num":1,"record_url":"","attempt_status":false,"call_data":"{\"UTC\": \"Europe/Moscow\", \"date\": \"17 марта\", \"name\": \"Милена\", \"phone\": \"79859993599\", \"ticket\": \"ticket@438292966\", \"orderId\": \"15586940\", \"order_amount\": \"11748\"}","attempt_cost":0,"session_id":1107453493,"duration":0,"recalc":false,"campaign_id":5237,"call_result_code":408,"call_resources":null,"call_calls":null,"call_records":null,"processing":false}],"_meta":{"totalCount":66480,"pageCount":3324,"currentPage":13,"perPage":20}}