{
    "page": 0,
    "pages": 2,
    "limit": 5,
    "total": 7,
    "gaps": [
        {
            "workflow": "illness",
            "person_login": "yukondrashov",
            "date_from": "2021-01-11T00:00:00",
            "date_to": "2021-01-15T00:00:00",
            "full_day": true,
            "work_in_absence": false,
            "comment": "",
            "id": 1
        },
        {
            "workflow": "illness",
            "person_login": "yukondrashov",
            "date_from": "2020-10-15T00:00:00",
            "date_to": "2020-11-01T00:00:00",
            "full_day": true,
            "work_in_absence": false,
            "comment": "",
            "id": 10
        },
        {
            "workflow": "vacation",
            "person_login": "yukondrashov",
            "date_from": "2021-02-22T00:00:00",
            "date_to": "2021-02-26T00:00:00",
            "full_day": true,
            "is_selfpaid": false,
            "work_in_absence": false,
            "comment": "",
            "id": 2
        },
        {
            "workflow": "vacation",
            "person_login": "rgizatulin",
            "date_from": "2021-01-25T00:00:00",
            "date_to": "2021-01-29T00:00:00",
            "full_day": true,
            "work_in_absence": false,
            "is_selfpaid": false,
            "comment": "",
            "id": 3
        },
        {
            "workflow": "vacation",
            "person_login": "rgizatulin",
            "date_from": "2021-03-09T00:00:00",
            "date_to": "2021-03-19T00:00:00",
            "full_day": true,
            "work_in_absence": false,
            "is_selfpaid": false,
            "comment": "",
            "id": 4
        }
    ]
}
