{
    "page": 1,
    "pages": 2,
    "limit": 5,
    "total": 7,
    "gaps": [
        {
            "workflow": "vacation",
            "person_login": "rgizatulin",
            "date_from": "2021-03-29T00:00:00",
            "date_to": "2021-03-31T00:00:00",
            "full_day": true,
            "work_in_absence": false,
            "is_selfpaid": true,
            "comment": "без связи\nпо всем вопросам к Иванову Ивану",
            "id": 5
        },
        {
            "workflow": "vacation",
            "person_login": "rgizatulin",
            "date_from": "2021-05-25T00:00:00",
            "date_to": "2021-06-01T00:00:00",
            "full_day": true,
            "work_in_absence": false,
            "is_selfpaid": true,
            "comment": "без связи\nпо всем вопросам к Иванову Ивану",
            "id": 50
        }
    ]
}
