{
  "data": [
    {
      "id": 13,
      "partnerId": 6,
      "type": "RECIPIENT",
      "method": "PARTNER_API",
      "checkpointStatusFrom": 113,
      "checkpointStatusTo": 114,
      "enabled": true,
      "enabledAt": "2021-01-20T20:20:20Z"
    }
  ],
  "page": 3,
  "size": 4,
  "totalElements": 13,
  "totalPages": 4
}
