{
  "data": [
    {
      "id": 1,
      "partnerId": 1,
      "type": "ORDER_ITEMS",
      "method": "PARTNER_API",
      "checkpointStatusFrom": 113,
      "checkpointStatusTo": 114,
      "enabled": true,
      "enabledAt": "2021-01-20T20:20:20Z"
    },
    {
      "id": 4,
      "partnerId": 2,
      "type": "ORDER_ITEMS",
      "method": "PARTNER_API",
      "checkpointStatusFrom": 113,
      "checkpointStatusTo": 114,
      "enabled": true,
      "enabledAt": "2021-01-20T20:20:20Z"
    }
  ],
  "page": 0,
  "size": 2,
  "totalElements": 6,
  "totalPages": 3
}
