{
    "totalPages": 2,
    "pageNumber": 1,
    "totalElements": 4,
    "requests": [
        {
            "id": 8,
            "serviceId": 100,
            "requestedDate": "2016-10-11T00:00:00",
            "comment": "zxy",
            "shopId": 2,
            "shopName": "supplier2",
            "type": 1,
            "createdAt": "2016-01-01T01:01:01",
            "updatedAt": "1999-09-09T09:09:09",
            "status": 2,
            "documents": [],
            "itemsTotalCount": 1,
            "hasDefects": false,
            "hasSurplus": false,
            "hasShortage": false,
            "hasAnomalyUnits": false,
            "errors": {
                "NO_MARKET_SKU_MAPPING_FOUND": 2
            },
            "needConfirmation": false,
            "mboErrors": 3,
            "mboErrorsByCode": {
                "TestCode": 2,
                "TestCodeAnother": 1
            },
            "detailsLoaded": false,
            "isRegistry": false
        },
        {
            "id": 3,
            "serviceId": 100,
            "requestedDate": "2016-12-06T05:05:05",
            "comment": "abc",
            "shopId": 2,
            "shopName": "supplier2",
            "type": 1,
            "createdAt": "2016-01-01T00:00:00",
            "updatedAt": "1999-09-09T09:09:09",
            "status": 2,
            "documents": [],
            "itemsTotalCount": 15,
            "hasDefects": false,
            "hasSurplus": false,
            "hasShortage": false,
            "hasAnomalyUnits": false,
            "needConfirmation": false,
            "mboErrors": 0,
            "mboErrorsByCode": {},
            "detailsLoaded": false,
            "isRegistry": false
        }
    ],
    "size": 2
}
