{
    "className": "GetPartnerOrdersAppResponse",
    "pager": {
        "pageSize": 1,
        "currentPage": 2,
        "totalCount": 4,
        "hasNext": true,
        "hasPrev": true
    },
    "orders": [
        {
            "orderId": 81545128,
            "items": [
                {
                    "itemId": 140430845
                },
                {
                    "itemId": 140430846
                }
            ]
        }
    ],
    "actions": "partners/{partnerId}/app/orders"
}
