{
    "result": {
        "pager": {
            "page": 1,
            "pages": 3,
            "total": 6
        },
        "items": [
            {
                "id": 2,
                "serviceType": "PROMO_BANNERS",
                "campaignName": "Продвижение по почте",
                "businessModel": "MARKETPLACE",
                "categoryId": 90401,
                "sum": 1000,
                "dateFrom": 1617235200000,
                "dateTo": 1619827200000,
                "approvedBy": 123,
                "status": "AWAITING_APPROVE",
                "anaplanId": null,
                "brandId": 1
            },
            {
                "id": 5,
                "serviceType": "PROMO_BANNERS",
                "campaignName": "Лучшие кофеварки",
                "businessModel": "MARKETPLACE",
                "categoryId": 90401,
                "sum": 1000,
                "dateFrom": 1619827200000,
                "dateTo": 1622505600000,
                "approvedBy": 123,
                "status": "AWAITING_APPROVE",
                "anaplanId": null,
                "brandId": 1
            }
        ]
    }
}
