{
    "data": [
        {
            "id": 2,
            "name": "DeliveryService1",
            "readableName": "Delivery service 1",
            "status": "ACTIVE",
            "type": "DELIVERY",
            "subtype": null,
            "locationId": 255
        },
        {
            "id": 4,
            "name": "DeliveryService3",
            "readableName": "Delivery service 3",
            "status": "ACTIVE",
            "type": "DELIVERY",
            "subtype": {
                "id": 1,
                "name": "Subtype 1"
            },
            "locationId": 255
        },
        {
            "id": 3,
            "name": "DeliveryService2",
            "readableName": "Delivery service 2",
            "status": "ACTIVE",
            "type": "DELIVERY",
            "subtype": {
                "id": 4,
                "name": "Subtype 4"
            },
            "locationId": 255
        },
        {
            "id": 1,
            "name": "OwnDeliveryService1",
            "readableName": "Own Delivery service 1",
            "status": "ACTIVE",
            "type": "OWN_DELIVERY",
            "subtype": null,
            "locationId": 255
        }
    ],
    "page": 2,
    "size": 4,
    "totalElements": 12,
    "totalPages": 3
}
