{
  "data": [
    {
      "id": 7,
      "partnerId": 4,
      "businessId": 110,
      "externalId": "R3",
      "type": "WAREHOUSE",
      "pickupPointType": null,
      "name": "Какой-то адрес",
      "address": {
        "locationId": 10675,
        "country": "Россия",
        "settlement": "Борисоглебск",
        "postCode": "",
        "latitude": 51.379909,
        "longitude": 42.125175,
        "street": "Матросовская",
        "house": "162",
        "housing": "",
        "building": "",
        "apartment": "",
        "comment": "",
        "region": "region3",
        "subRegion": "subRegion3",
        "addressString": "Борисоглебск, Матросовская, д. 162",
        "shortAddressString": "Матросовская, д. 162",
        "exactLocationId": 10675
      },
      "phones": [],
      "active": true,
      "schedule": null,
      "contact": null,
      "cashAllowed": false,
      "prepayAllowed": false,
      "cardAllowed": false,
      "main": null,
      "photos": null,
      "instruction": null,
      "courierInstruction": null,
      "courierPhotos": null,
      "returnAllowed": false,
      "services": [],
      "storagePeriod": null,
      "maxWeight": null,
      "maxLength": null,
      "maxWidth": null,
      "maxHeight": null,
      "maxSidesSum": null,
      "locationZoneId": null,
      "marketBranded": false,
      "availableForOnDemand": false,
      "deferredCourierAvailable": false,
      "handlingTime": null,
      "frozen": false
    }
  ],
  "page": 3,
  "size": 2,
  "totalElements": 7,
  "totalPages": 4
}
