{
  "data": [
    {
      "id": 1,
      "partnerId": 1,
      "businessId": null,
      "externalId": "R1",
      "type": "PICKUP_POINT",
      "pickupPointType": "TERMINAL",
      "name": "Склад Я.Маркета в Риге",
      "address": {
        "locationId": 11474,
        "country": "Россия",
        "settlement": "",
        "postCode": "1005",
        "latitude": 56.948048,
        "longitude": 24.107018,
        "street": "Уриекстес",
        "house": "14а",
        "housing": "",
        "building": "",
        "apartment": "",
        "comment": "SIA “ILIOR”",
        "region": "region1",
        "subRegion": "subRegion1",
        "addressString": "1005, Рига, Уриекстес, 14а",
        "shortAddressString": "Уриекстес, 14а",
        "exactLocationId": 11474
      },
      "phones": [
        {
          "number": "79060312378",
          "internalNumber": null,
          "comment": "Всегда занят",
          "type": 1
        },
        {
          "number": "79060312378",
          "internalNumber": null,
          "comment": null,
          "type": 0
        }
      ],
      "active": true,
      "schedule": [
        {
          "id": 1,
          "day": 1,
          "timeFrom": "10:00:00",
          "timeTo": "18:00:00",
          "isMain": true
        },
        {
          "id": 2,
          "day": 2,
          "timeFrom": "12:00:00",
          "timeTo": "16:00:00",
          "isMain": true
        }
      ],
      "contact": {
        "name": "Григорий",
        "surname": "Синьков",
        "patronymic": ""
      },
      "cashAllowed": false,
      "prepayAllowed": false,
      "cardAllowed": false,
      "main": null,
      "photos": null,
      "instruction": null,
      "courierInstruction": null,
      "courierPhotos": null,
      "returnAllowed": false,
      "services": [
        {
          "code": "CASH_SERVICE",
          "name": null,
          "description": null,
          "optional": false
        },
        {
          "code": "CHECK",
          "name": null,
          "description": null,
          "optional": false
        }
      ],
      "storagePeriod": null,
      "maxWeight": 10.5,
      "maxLength": 100,
      "maxWidth": 10,
      "maxHeight": 10,
      "maxSidesSum": 10,
      "locationZoneId": 1,
      "marketBranded": false,
      "availableForOnDemand": false,
      "deferredCourierAvailable": false,
      "handlingTime": null,
      "frozen": false
    },
    {
      "id": 2,
      "partnerId": 2,
      "businessId": null,
      "externalId": "main1",
      "type": "PICKUP_POINT",
      "pickupPointType": "PICKUP_POINT",
      "name": "г.Котельники, Яничкин проезд, д.7",
      "address": {
        "locationId": 21651,
        "country": "Россия",
        "settlement": "",
        "postCode": "111024",
        "latitude": 56.659840,
        "longitude": 37.863199,
        "street": "Яничкин проезд",
        "house": "7",
        "housing": "",
        "building": "",
        "apartment": "",
        "comment": "терминал БД-6",
        "region": "region2",
        "subRegion": "subRegion2",
        "addressString": "111024, Московская область, Котельники, Яничкин проезд, 7",
        "shortAddressString": "Яничкин проезд, 7",
        "exactLocationId": 21651
      },
      "phones": [
        {
          "number": "79254448812",
          "internalNumber": "345",
          "comment": null,
          "type": 0
        }
      ],
      "active": true,
      "schedule": [
        {
          "id": 3,
          "day": 3,
          "timeFrom": "16:00:00",
          "timeTo": "18:00:00",
          "isMain": true
        },
        {
          "id": 4,
          "day": 4,
          "timeFrom": "06:00:00",
          "timeTo": "09:00:00",
          "isMain": true
        }
      ],
      "contact": {
        "name": "Марат",
        "surname": "Болатов",
        "patronymic": ""
      },
      "cashAllowed": false,
      "prepayAllowed": false,
      "cardAllowed": false,
      "main": null,
      "photos": null,
      "instruction": null,
      "courierInstruction": null,
      "courierPhotos": null,
      "returnAllowed": false,
      "services": [
        {
          "code": "CASH_SERVICE",
          "name": null,
          "description": null,
          "optional": false
        }
      ],
      "storagePeriod": null,
      "maxWeight": 10.5,
      "maxLength": 10,
      "maxWidth": 100,
      "maxHeight": 10,
      "maxSidesSum": 10,
      "locationZoneId": 2,
      "marketBranded": false,
      "availableForOnDemand": false,
      "deferredCourierAvailable": false,
      "handlingTime": null,
      "frozen": false
    }
  ],
  "page": 0,
  "size": 2,
  "totalElements": 7,
  "totalPages": 4
}
