{
    "count": 4,
    "next": "%(partner_server_url)s/orders/?format=json&limit=2&offset=2&flat=False",
    "previous": null,
    "results": {
        "orders": [
            {
                "arrival": 123456789,
                "coach_number": "coach_number_0",
                "coach_owner": "coach_owner_0",
                "coach_type": "coach_type_0",
                "created_at": 234567891,
                "departure": 123456789,
                "orders_created": "orders_created_0",
                "partner_data_im_order_id": 990000,
                "partner_data_operation_id": "partner_data_operation_id_0",
                "payment_uid": "payment_uid_0",
                "payment_purchase_token": "payment_purchase_token0",
                "payment_use_deferred_clearing": true,
                "rebooking_available": true,
                "refunds_count": 1,
                "scheme_id": "77",
                "station_from_id": 2,
                "station_to_id": 3,
                "status": "status_0",
                "tickets_with_places_count": 1,
                "tickets_without_places_count": 2,
                "train_number": "train_number_0",
                "train_ticket_number": "train_ticket_number_0",
                "travel_status": "Cancelled",
                "two_storey": true,
                "uid": "uid_0",
                "user_ip": "user_ip_0",
                "user_is_mobile": true,
                "user_region_id": 0,
                "adult_passengers_count": 1,
                "bought_insurance_count": 0,
                "children_with_seats_count": 1,
                "children_without_seats_count": 0,
                "insurance_auto_return": false,
                "payment_attempts": 1,
                "refunded_ticket_count": 0,
                "requested_ticket_count": 2,
                "total_fee_amount": 847.63,
                "total_insurance_amount": 0,
                "total_insurance_profit_amount": 0,
                "total_partner_fee_amount": 63.4,
                "total_partner_refund_fee_amount": 0,
                "total_refund_fee_amount": 0,
                "total_refund_insurance_amount": 0,
                "total_refund_ticket_amount": 0,
                "total_service_amount": 1532,
                "total_tariff_amount": 6173.7,
                "total_ticket_count": 0,
                "source_is_transfer": true
            },
            {
                "arrival": 123456789,
                "coach_number": "coach_number_1",
                "coach_owner": "coach_owner_1",
                "coach_type": "coach_type_1",
                "created_at": 234567891,
                "departure": 123456789,
                "orders_created": "orders_created_1",
                "partner_data_im_order_id": 990001,
                "partner_data_operation_id": "partner_data_operation_id_1",
                "payment_uid": "payment_uid_1",
                "payment_use_deferred_clearing": true,
                "rebooking_available": true,
                "refunds_count": 1,
                "station_from_id": 2,
                "station_to_id": 3,
                "status": "status_1",
                "tickets_with_places_count": 1,
                "tickets_without_places_count": 2,
                "train_number": "train_number_1",
                "train_ticket_number": "train_ticket_number_1",
                "travel_status": "Done",
                "two_storey": true,
                "uid": "uid_1",
                "user_ip": "user_ip_1",
                "user_is_mobile": true,
                "user_region_id": 0,
                "adult_passengers_count": 1,
                "bought_insurance_count": 2,
                "children_with_seats_count": 0,
                "children_without_seats_count": 2,
                "insurance_auto_return": true,
                "payment_attempts": 3,
                "refunded_ticket_count": 1,
                "requested_ticket_count": 2,
                "total_fee_amount": 847.63,
                "total_insurance_amount": 100.0,
                "total_insurance_profit_amount": 65.0,
                "total_partner_fee_amount": 63.4,
                "total_partner_refund_fee_amount": 0,
                "total_refund_fee_amount": 0,
                "total_refund_insurance_amount": 100,
                "total_refund_ticket_amount": 0,
                "total_service_amount": 1532,
                "total_tariff_amount": 6173.7,
                "total_ticket_count": 3
            }
        ]
    }
}
