{
  "data": [
    {
      "id": 10007,
      "name": "bar handing",
      "type": "HANDING",
      "locationId": 1003,
      "partnerId": 3,
      "logisticsPointId": null,
      "services": [],
      "nextSegmentIds": [],
      "previousSegmentIds": [
        10005
      ],
      "nextSegmentPartnerIds": [],
      "previousSegmentPartnerIds": [
        3
      ]
    }
  ],
  "page": 2,
  "size": 2,
  "totalElements": 5,
  "totalPages": 3
}
