{
  "data": [
    {
      "id": 1,
      "marketId": 829721,
      "businessId": null,
      "realSupplierId": null,
      "partnerType": "FULFILLMENT",
      "name": "FulfillmentService1",
      "readableName": "Fulfillment service 1",
      "status": "ACTIVE",
      "codeName": null,
      "abbreviation": null,
      "locationId": 255,
      "trackingType": "tt1",
      "billingClientId": 123,
      "rating": 1,
      "domain": "first.ff.example.com",
      "logoUrl": "http://test.logo.first",
      "stockSyncEnabled": false,
      "autoSwitchStockSyncEnabled": false,
      "stockSyncSwitchReason": "UNKNOWN",
      "korobyteSyncEnabled": false,
      "params": [
        {
          "key": "IS_COMMON",
          "description": "Является ли служба обыкновенной",
          "value": "true"
        }
      ],
      "intakeSchedule": [
        {
          "id": 11,
          "day": 1,
          "timeFrom": "00:00:00",
          "timeTo": "12:00:00",
          "isMain": false
        },
        {
          "id": 10,
          "day": 1,
          "timeFrom": "12:00:00",
          "timeTo": "16:00:00",
          "isMain": false
        }
      ],
      "platformClients": [
        {
          "id": 3901,
          "name": "Beru",
          "status": "ACTIVE"
        }
      ],
      "calendarId": 1,
      "subtype": null,
      "customerInfo": null,
      "taxationSystem": "COMMON",
      "balanceContract": null,
      "oebsVirtualAccountNumber": null,
      "contractSignedSince": null
    },
    {
      "id": 2,
      "marketId": 829722,
      "businessId": null,
      "realSupplierId": null,
      "partnerType": "DELIVERY",
      "name": "DeliveryService1",
      "readableName": "Delivery service 1",
      "status": "ACTIVE",
      "codeName": null,
      "abbreviation": null,
      "locationId": 255,
      "trackingType": "tt2",
      "billingClientId": 123,
      "rating": 1,
      "domain": "first.ds.example.com",
      "logoUrl": "http://test.logo.second",
      "stockSyncEnabled": false,
      "autoSwitchStockSyncEnabled": false,
      "stockSyncSwitchReason": "UNKNOWN",
      "params": [],
      "intakeSchedule": [],
      "korobyteSyncEnabled": false,
      "platformClients": [
        {
          "id": 3902,
          "name": "Bringly",
          "status": "ACTIVE"
        }
      ],
      "calendarId": null,
      "subtype": {
        "id": 2,
        "name": "Маркет Курьер"
      },
      "customerInfo": null,
      "taxationSystem": null,
      "balanceContract": {
        "serviceContractId": 133,
        "externalId": "contractExternalId",
        "id": 1
      },
      "oebsVirtualAccountNumber": null,
      "contractSignedSince": null
    }
  ],
  "page": 0,
  "size": 2,
  "totalElements": 8,
  "totalPages": 4
}
