{
  "data": [
    {
      "id": 7,
      "marketId": 829727,
      "businessId": null,
      "realSupplierId": null,
      "partnerType": "SUPPLIER",
      "name": "SupplierService",
      "readableName": "Supplier service 3",
      "status": "ACTIVE",
      "codeName": null,
      "abbreviation": null,
      "locationId": null,
      "trackingType": null,
      "billingClientId": 1234,
      "rating": 12,
      "domain": "second.ds.example.com",
      "logoUrl": "http://test.logo.sixth",
      "stockSyncEnabled": null,
      "autoSwitchStockSyncEnabled": null,
      "stockSyncSwitchReason": "UNKNOWN",
      "params": [],
      "intakeSchedule": [],
      "korobyteSyncEnabled": false,
      "platformClients": [],
      "calendarId": null,
      "subtype": null,
      "customerInfo": null,
      "taxationSystem": null,
      "balanceContract": null,
      "oebsVirtualAccountNumber": null,
      "contractSignedSince": null
    },
    {
      "id": 8,
      "marketId": 829728,
      "businessId": null,
      "realSupplierId": null,
      "partnerType": "OWN_DELIVERY",
      "name": "DeliveryService3",
      "readableName": "Delivery service 3",
      "status": "ACTIVE",
      "codeName": null,
      "abbreviation": null,
      "locationId": 255,
      "trackingType": "tt8",
      "billingClientId": 1234,
      "rating": 12,
      "domain": "second.ds.example.com",
      "logoUrl": "http://test.logo.seven",
      "stockSyncEnabled": false,
      "autoSwitchStockSyncEnabled": false,
      "stockSyncSwitchReason": "UNKNOWN",
      "params": [],
      "intakeSchedule": [],
      "korobyteSyncEnabled": false,
      "platformClients": [],
      "calendarId": null,
      "subtype": null,
      "customerInfo": null,
      "taxationSystem": null,
      "balanceContract": null,
      "oebsVirtualAccountNumber": null,
      "contractSignedSince": null
    }
  ],
  "page": 3,
  "size": 2,
  "totalElements": 8,
  "totalPages": 4
}
