{
    "data": [
        {
            "hid": 91000,
            "itemssharechange": 1.0,
            "salessharetotal": 1.0,
            "itemssharetotal": 1.0,
            "categoryName": "hid2",
            "salessharechange": 1.0
        }
    ],
    "paging": {
        "pageNumber": 1,
        "pageSize": 1,
        "totalPages": 2,
        "totalElements": 2
    }
}
