{
    "totalPages": 3,
    "pageNumber": 1,
    "totalElements": 9,
    "units": [
        {
            "registryId": 2,
            "type": 0,
            "unitInfo": {
                "unitId": {
                    "parts": [
                        {
                            "type": "PALLET_ID",
                            "value": "PL0002"
                        }
                    ]
                },
                "parentUnitIds": [],
                "unitCountsInfo": {
                    "unitCounts": [
                        {
                            "type": "FIT",
                            "count": 1,
                            "relatedUnitIds": [
                                {
                                    "parts": [
                                        {
                                            "type": "CIS",
                                            "value": "CIS0002"
                                        }
                                    ]
                                }
                            ]
                        }
                    ]
                }
            }
        },
        {
            "registryId": 2,
            "type": 10,
            "unitInfo": {
                "unitId": {
                    "parts": [
                        {
                            "type": "BOX_ID",
                            "value": "P0002"
                        }
                    ]
                },
                "parentUnitIds": [
                    {
                        "parts": [
                            {
                                "type": "PALLET_ID",
                                "value": "PL0002"
                            }
                        ]
                    }
                ],
                "unitCountsInfo": {
                    "unitCounts": [
                        {
                            "type": "FIT",
                            "count": 1,
                            "relatedUnitIds": [
                                {
                                    "parts": [
                                        {
                                            "type": "CIS",
                                            "value": "CIS0002"
                                        }
                                    ]
                                }
                            ]
                        }
                    ]
                }
            }
        }
    ],
    "size": 2
}
