{
  "data": [
    {
      "id": 502,
      "shopId": 10,
      "planIntervalFrom": "2021-03-04T10:21:00",
      "planIntervalTo": "2021-04-05T11:22:00",
      "number": "502",
      "shipmentType": "IMPORT",
      "status": null,
      "statusDescription": null,
      "warehouseFrom": {
        "id": 900,
        "name": "Какой-то склад",
        "address": "Один адрес (короткий)",
        "type": null
      },
      "partner": {
        "id": 100,
        "name": "Какой-то партнёр"
      },
      "warehouseTo": {
        "id": 910,
        "name": "Какой-то другой склад",
        "address": "Другой адрес (короткий)",
        "type": null
      },
      "ordersCount": {
        "draft": null,
        "planned": null,
        "fact": null
      }
    },
    {
      "id": 503,
      "shopId": 10,
      "planIntervalFrom": "2021-03-04T10:21:00",
      "planIntervalTo": "2021-04-05T11:22:00",
      "number": "503",
      "shipmentType": "IMPORT",
      "status": null,
      "statusDescription": null,
      "warehouseFrom": {
        "id": 900,
        "name": "Какой-то склад",
        "address": "Один адрес (короткий)",
        "type": null
      },
      "partner": {
        "id": 100,
        "name": "Какой-то партнёр"
      },
      "warehouseTo": {
        "id": 910,
        "name": "Какой-то другой склад",
        "address": "Другой адрес (короткий)",
        "type": null
      },
      "ordersCount": {
        "draft": null,
        "planned": null,
        "fact": null
      }
    }
  ],
  "page": 1,
  "size": 2,
  "totalElements": 4,
  "totalPages": 2
}
