{
    "result": {
        "pager": {
            "page": 1,
            "pages": 2,
            "total": 4
        },
        "items": [
            {
                "id": 1,
                "name": "Banner инкат new",
                "parentCategories": [
                    91491
                ],
                "siblingCategories": [
                    10498025
                ],
                "customCategories": [],
                "bid": 10,
                "models": [
                    1429703292,
                    1448810179
                ],
                "incutState": "ACTIVE",
                "targetPlace": "SEARCH",
                "transitions": []
            },
            {
                "id": 7,
                "name": "Good Инкат",
                "parentCategories": [
                    91491
                ],
                "siblingCategories": [
                    10498025
                ],
                "customCategories": [],
                "bid": 45,
                "models": [
                    1429703292,
                    1448810179
                ],
                "incutState": "ACTIVE",
                "targetPlace": "SEARCH",
                "transitions": []
            }
        ]
    }
}
