{
    "data": [
        {
            "id": 162,
            "name": "Алматы"
        },
        {
            "id": 163,
            "name": "Астана"
        }
    ],
    "page": 0,
    "size": 2,
    "totalElements": 3,
    "totalPages": 2
}
