{
    "data": [
        {
            "id": 164,
            "name": "Караганда"
        }
    ],
    "page": 1,
    "size": 2,
    "totalElements": 3,
    "totalPages": 2
}
