{
  "data": [
    {
      "id": 2,
      "state" : "FINISHED",
      "outbound": {
        "id": 3,
        "externalId": null,
        "requestId": 3,
        "yandexId": "TMU3",
        "status": "SENT",
        "type": "OUTBOUND",
        "logisticPointId": 3,
        "plannedIntervalStart": "2021-03-05T12:00:00",
        "plannedIntervalEnd": "2021-03-06T14:00:00",
        "actualDateTime": null,
        "registers": [
          {
            "id": 3,
            "type": "PLAN",
            "status": "PREPARING",
            "externalId": "register2",
            "documentId": "abc234",
            "partnerId": 2,
            "comment": "Очень важный комментарий",
            "restrictedData": null
          }
        ],
        "partner": {
          "id": 123,
          "name": "Partner",
          "type": "DELIVERY",
          "marketId": null,
          "inn": null,
          "ogrn": null,
          "legalName": null,
          "legalType": null,
          "legalAddress": null
        },
        "changedAt": null,
        "transportationId": 2
      },
      "inbound": {
        "id": 4,
        "yandexId" : "TMU4",
        "externalId": null,
        "requestId": null,
        "status": "SENT",
        "type": "INBOUND",
        "logisticPointId": 4,
        "plannedIntervalStart": "2021-03-05T12:00:00",
        "plannedIntervalEnd": "2021-03-06T14:00:00",
        "actualDateTime": null,
        "registers": [],
        "partner": {
          "id": 2,
          "name": null,
          "type": null,
          "marketId": null,
          "inn": null,
          "ogrn": null,
          "legalName": null,
          "legalType": null,
          "legalAddress": null
        },
        "changedAt": null,
        "transportationId": 2
      },
      "movement": {
        "id": 6,
        "externalId": null,
        "status": "NEW",
        "weight": 10,
        "volume": 24,
        "maxPallet": null,
        "isTrackable": null,
        "registers": [],
        "partner": {
          "id": 234,
          "name": "Partner",
          "type": "DELIVERY",
          "marketId": null,
          "inn": null,
          "ogrn": null,
          "legalName": null,
          "legalType": null,
          "legalAddress": null
        },
        "transport": null,
        "courier": null,
        "changedAt": null,
        "plannedIntervalStart": null,
        "plannedIntervalEnd": null,
        "arrivedAt": null
      },
      "scheme": "UNKNOWN",
      "deleted": false,
      "hash": "",
      "transportationSource": "LMS_TM_MOVEMENT",
      "transportationType": "ORDERS_OPERATION",
      "plannedLaunchTime": "2021-03-05T12:00:00",
      "tags": [],
      "stockType" : null,
      "interwarehouseTicketKey": null
    }
  ],
  "totalPages": 3,
  "pageNumber": 0,
  "totalElements": 3,
  "size": 1
}
