{
    "pageInfo": {
        "page": 1,
        "totalPage": 2,
        "totalItems": 4
    },
    "operations": [
        {
            "id": 3,
            "startedAt": "2021-04-28T09:00:00",
            "endedAt": "2021-04-28T21:00:00",
            "operationType": "OTHER_WORK",
            "shift": "4 смена",
            "employee": {
                "id": 5317,
                "name": "Иванов Иван",
                "position": "Бригадир",
                "staff": "test1",
                "photoUrl": "/test1/avatar/100.jpg",
                "groupTitle": "Приемка возвратных поступлений",
                "groupId": 96,
                "fired": false,
                "newbie": false,
                "scLogin": "ermakov.germanes@yandex.ru"
            },
            "createdAt": "2021-04-26T12:00:00",
            "createdBy": {
                "id": 1,
                "name": "Павлов Павел",
                "position": "Босс",
                "staff": "any",
                "photoUrl": "/any/avatar/100.jpg",
                "groupTitle": "",
                "fired": false,
                "newbie": false
            },
            "isOutstaff": false,
            "isActiveShift": false
        },
        {
            "id": 4,
            "startedAt": "2021-04-28T00:00:00",
            "endedAt": "2021-04-28T09:00:00",
            "operationType": "MENTORING",
            "shift": "1 смена",
            "employee": {
                "id": 9876,
                "name": "тестовый Сергей тестович",
                "position": "Оператор прт",
                "wms": "user-100",
                "scLogin": "ermak.germanes@yandex.ru",
                "staff": "",
                "fired": false,
                "newbie": false
            },
            "createdAt": "2021-04-26T12:00:00",
            "createdBy": {
                "id": 9527,
                "name": "Павлов Павел Аутстафф",
                "position": "Босс Аутстаффа",
                "staff": "any-2",
                "photoUrl": "/any-2/avatar/100.jpg",
                "groupTitle": "",
                "fired": false,
                "newbie": false,
                "scLogin": "ermak.germas@yndex.ru"
            },
            "isOutstaff": true,
            "isActiveShift": false
        }
    ]
}
