{
    "workers": [
        {
            "id": 1,
            "name": "Петренко Сергей",
            "position": "Актер",
            "staff": "petrenko-s",
            "photoUrl": "/petrenko-s/avatar/100.jpg",
            "workStarted": "2021-01-18",
            "wmsLogin": "tg-petrenko",
            "isOffice": true,
            "ispringId": "ispring-id-e1",
            "ispringStartDate": "2022-02-02T15:00:00Z",
            "domains": [
                {
                    "id": 1,
                    "name": "Театр на таганке",
                    "type": "FFC",
                    "needWmsLogins": true,
                    "needScLogins": false
                }
            ],
            "employeeType": "STAFF"
        }
    ],
    "pageInfo": {
        "page": 1,
        "totalPage": 2,
        "totalItems": 2
    }
}
