{
    "workers": [
        {
            "common": {
                "staff": "s-bezrukov",
                "name": "Безруков Сергей Витальевич",
                "position": "Актер",
                "phoneNumber": "+79009009090",
                "isOutstaff": false
            },
            "id": 1,
            "name": "Безруков Сергей Витальевич",
            "position": "Актер",
            "phoneNumber": "+79009009090",
            "staff": "s-bezrukov",
            "ispringId": "ispring-id-c1",
            "ispringStartDate": "2022-02-02T15:00:00Z",
            "domains": [
                {
                    "id": 1,
                    "name": "Театр на таганке",
                    "type": "FFC",
                    "needWmsLogins": true,
                    "needScLogins": false
                }
            ],
            "employeeType": "CANDIDATE"
        }
    ],
    "pageInfo": {
        "page": 0,
        "totalPage": 2,
        "totalItems": 2
    }
}
