{
    "content": [
        {
            "id": 1,
            "name": "Курьер Курьер",
            "role": "ADMIN",
            "regionList": [
                {
                    "name": "Якиманка"
                },
                {
                    "name": "Замоскворечье"
                }
            ],
            "recipientCallEnabled": false
        },
        {
            "id": 2,
            "name": "Курьер Курьер",
            "role": "ADMIN",
            "regionList": [
                {
                    "name": "Якиманка"
                },
                {
                    "name": "Замоскворечье"
                }
            ],
            "recipientCallEnabled": false,
            "routingProperties": {
                "carMultiplier": 1,
                "carSharedServiceMultiplier": 10,
                "carServiceMultiplier": 1,
                "carEnabled": true,
                "footMultiplier": 10,
                "footEnabled": false
            }
        }
    ],
    "pageable": {
        "sort": {
            "sorted": true,
            "unsorted": false,
            "empty": false
        },
        "offset": 0,
        "pageSize": 2,
        "pageNumber": 0,
        "paged": true,
        "unpaged": false
    },
    "totalPages": 5,
    "totalElements": 9,
    "last": false,
    "size": 2,
    "first": true,
    "numberOfElements": 2,
    "number": 0,
    "sort": {
        "sorted": true,
        "unsorted": false,
        "empty": false
    },
    "empty": false
}
