{
  "content": [
    {
      "source": "SYSTEM",
      "date": "2020-09-23T21:00:00Z",
      "type": "CREATED"
    },
    {
      "source": "SYSTEM",
      "date": "2020-09-23T21:00:00Z",
      "type": "ORDER_FLOW_STATUS_CHANGED"
    },
    {
       "source": "SYSTEM",
       "date": "2020-09-23T21:00:00Z",
       "type": "RECIPIENT_DATA_CHANGED",
       "context": "Old: FIO: Pupkin Vasiliy, email: some@mail.ru, phone: +79001112233; New: FIO: Andreev Andrey, email: test@mail.ru, phone: +79001112234"
    },
    {
       "source": "SYSTEM",
       "date": "2020-09-23T21:00:00Z",
       "type": "RECIPIENT_DATA_CHANGED",
       "context": "Old: FIO: Andreev Andrey; New: FIO: Pupkin Vasiliy"
    }
  ],
  "pageable": {
    "sort": {
      "unsorted": false,
      "sorted": true,
      "empty": false
    },
    "offset": 0,
    "pageSize": 4,
    "pageNumber": 0,
    "paged": true,
    "unpaged": false
  },
  "totalElements": 100,
  "totalPages": 25,
  "last": false,
  "size": 4,
  "first": true,
  "sort": {
    "unsorted": false,
    "sorted": true,
    "empty": false
  },
  "numberOfElements": 4,
  "number": 0,
  "empty": false
}
