{
  "content": [
    {
      "orderId": "1566573719999",
      "address": "Ильи Толстого д. 4, кв. 1",
      "shiftDate": "2019-08-23",
      "taskStatus": "DELIVERY_FAILED",
      "failReasonType": "NO_CONTACT",
      "currentRoutePoint": false,
      "courierUid": 1,
      "courierName": "Курьер Курьер",
      "userShiftStatus": "ON_TASK",
      "deliveryServiceId": 0,
      "sortingCenterId": 0,
      "sender": {
        "yandexId": "431782",
        "incorporation": "ООО Яндекс Маркет"
      },
        "partialReturnAllowed": false,
        "fashion": false,
        "partiallyReturned": false,
      "partOfMultiOrder": false,
      "isMultiPlace": false
    },
    {
      "orderId": "1566573725597",
      "address": "Льва Толстого д. 7, кв. 1",
      "shiftDate": "2019-08-24",
      "taskStatus": "DELIVERY_FAILED",
      "failReasonType": "NO_CONTACT",
      "currentRoutePoint": false,
      "courierUid": 1,
      "courierName": "Курьер Курьер",
      "userShiftStatus": "ON_TASK",
      "deliveryServiceId": 0,
      "sortingCenterId": 0,
      "sender": {
        "yandexId": "431782",
        "incorporation": "ООО Яндекс Маркет"
      },
        "partialReturnAllowed": false,
        "fashion": false,
        "partiallyReturned": false,
      "partOfMultiOrder": false,
      "isMultiPlace": false
    }
  ],
  "pageable": {
    "sort": {
      "sorted": true,
      "unsorted": false,
      "empty": false
    },
    "pageSize": 2,
    "pageNumber": 0,
    "offset": 0,
    "unpaged": false,
    "paged": true
  },
  "totalPages": 79,
  "totalElements": 157,
  "last": false,
  "first": true,
  "number": 0,
  "size": 2,
  "sort": {
    "sorted": true,
    "unsorted": false,
    "empty": false
  },
  "numberOfElements": 2,
  "empty": false
}
