{
    "size": 1,
    "number": 1,
    "totalElements": 2,
    "totalPages": 2,
    "content": [
        {
            "programId": "dora-course",
            "title": "Курс от Даши путешественницы",
            "description": null,
            "expectedDurationMinutes": null,
            "assignmentStatus": "ASSIGNED",
            "userId": "dora-the-explorer"
        }
    ]
}
