{
  "data": [
    {
      "partnerType": "DROPSHIP",
      "name": "business warehouse",
      "readableName": "бизнес склад",
      "businessId": 123456789,
      "marketId": 12345,
      "externalId": "ext-id-5-point",
      "address": {
        "locationId": 1,
        "country": "Россия",
        "settlement": "Новосибирск",
        "postCode": "630111",
        "latitude": 0.110000,
        "longitude": 0.120000,
        "street": "Николаева",
        "house": "11",
        "housing": "1",
        "building": "1",
        "estate": null,
        "apartment": "1",
        "km": null,
        "comment": "comment",
        "region": "Новосибирская область",
        "subRegion": "Новосибирский",
        "addressString": "Россия, Новосибирск, Николаева",
        "shortAddressString": "Россия, Новосибирск",
        "exactLocationId": 2
      },
      "phones": [],
      "schedule": null,
      "contact": null,
      "partnerId": 5,
      "logisticsPointId": 5,
      "logisticsPointName": "business warehouse 5",
      "partnerStatus": "ACTIVE",
      "partnerParams": [],
      "logoUrl": null,
      "rating": null,
      "billingClientId": null,
      "domain": null,
      "locationId": null,
      "shipmentType": null
    }
  ],
  "page": 2,
  "size": 1,
  "totalElements": 3,
  "totalPages": 3
}
