{
  "data": [
    {
      "partnerType": "DROPSHIP",
      "name": "business warehouse",
      "readableName": "бизнес склад",
      "businessId": 41,
      "marketId": 100,
      "externalId": "ext-id-4",
      "address": {
        "locationId": 1,
        "country": "Россия",
        "settlement": "Новосибирск",
        "postCode": "630111",
        "latitude": 0.110000,
        "longitude": 0.120000,
        "street": "Николаева",
        "house": "11",
        "housing": "1",
        "building": "1",
        "estate": null,
        "apartment": "1",
        "km": null,
        "comment": "comment",
        "region": "Новосибирская область",
        "subRegion": "Новосибирский",
        "addressString": "Россия, Новосибирск, Николаева",
        "shortAddressString": "Россия, Новосибирск",
        "exactLocationId": 2
      },
      "phones": [],
      "schedule": [
        {
          "id": 1,
          "day": 2,
          "timeFrom": "10:00:00",
          "timeTo": "12:00:00",
          "isMain": true
        }
      ],
      "contact": {
        "name": "Имя",
        "surname": "Фамилия",
        "patronymic": "Отчество"
      },
      "partnerId": 1,
      "logisticsPointId": 4,
      "logisticsPointName": "business warehouse 4",
      "partnerStatus": "INACTIVE",
      "partnerParams": [
        {
          "key": "DROPSHIP_EXPRESS",
          "description": null,
          "value": "1"
        },
        {
          "key": "IS_DROPOFF",
          "description": null,
          "value": "1"
        }
      ],
      "logoUrl": "http://partner.test/avatarka1.jpg",
      "rating": 21,
      "billingClientId": 11,
      "domain": "first.ff.example1.com",
      "locationId": 100,
      "shipmentType": "EXPRESS"
    },
    {
      "partnerType": "SUPPLIER",
      "name": "business warehouse",
      "readableName": "бизнес склад",
      "businessId": 42,
      "marketId": 200,
      "externalId": "ext-id-3",
      "address": {
        "locationId": 1,
        "country": "Россия",
        "settlement": "Новосибирск",
        "postCode": "630111",
        "latitude": 0.110000,
        "longitude": 0.120000,
        "street": "Николаева",
        "house": "11",
        "housing": "1",
        "building": "1",
        "estate": null,
        "apartment": "1",
        "km": null,
        "comment": "comment",
        "region": "Новосибирская область",
        "subRegion": "Новосибирский",
        "addressString": "Россия, Новосибирск, Николаева",
        "shortAddressString": "Россия, Новосибирск",
        "exactLocationId": 2
      },
      "phones": [],
      "schedule": [
        {
          "id": 1,
          "day": 2,
          "timeFrom": "10:00:00",
          "timeTo": "12:00:00",
          "isMain": true
        }
      ],
      "contact": {
        "name": "Имя",
        "surname": "Фамилия",
        "patronymic": "Отчество"
      },
      "partnerId": 2,
      "logisticsPointId": 3,
      "logisticsPointName": "business warehouse 3",
      "partnerStatus": "ACTIVE",
      "partnerParams": [],
      "logoUrl": "http://partner.test/avatarka2.jpg",
      "rating": 22,
      "billingClientId": 12,
      "domain": "first.ff.example2.com",
      "locationId": null,
      "shipmentType": "WITHDRAW"
    }
  ],
  "page": 0,
  "size": 2,
  "totalElements": 3,
  "totalPages": 2
}
