{
  "totalPages": 2,
  "pageNumber": 1,
  "totalElements": 2,
  "requestItems": [
    {
      "article": "abc",
      "barcodes": [
        "11",
        "22"
      ],
      "count": 3,
      "factCount": 2,
      "defectCount": 1,
      "name": "offer_1",
      "marketName": "market_name_1",
      "sku": 2222,
      "supplyPrice": 50.50,
      "vatRate": 5,
      "length": 10.0,
      "width": 4.0,
      "height": 3.0,
      "cargoTypes" : [ 200 ],
      "errors":["NO_MARKET_SKU_MAPPING_FOUND","NO_PREVIOUS_SUPPLY_WITH_ARTICLE_AND_SUPPLIER_FOUND"]
    },
    {
      "article": "abcd",
      "barcodes": [
        "111",
        "222"
      ],
      "count": 3,
      "name": "offer_2",
      "marketName": "market_name_2",
      "sku": 3333,
      "supplyPrice": 50.50,
      "vatRate": 5
    }    
  ],
  "totalCount": 6, 
  "totalFactCount": 2, 
  "totalDefectCount": 1, 
  "totalSupplyPrice": 101.00,
  "size": 1
}

