{
  "data": [
    {
      "id": 5000,
      "planIntervalFrom": "2021-02-25T10:20:00",
      "planIntervalTo": "2021-02-26T11:22:00",
      "number": "shipment-number",
      "shipmentType": "WITHDRAW",
      "status": "OUTBOUND_CREATED",
      "statusDescription": "status-description",
      "partner": {
        "id": 200,
        "name": "shipment-partner"
      },
      "ordersCount": {
        "draft": 100,
        "planned": 200,
        "fact": 300
      }
    }
  ],
  "page": 0,
  "size": 10,
  "totalElements": 100,
  "totalPages": 10
}
